<?xml version="1.0" standalone="no"?>
<!DOCTYPE svg PUBLIC "-//W3C//DTD SVG 1.1//EN" "http://www.w3.org/Graphics/SVG/1.1/DTD/svg11.dtd" >
<svg xmlns="http://www.w3.org/2000/svg">
<metadata>Generated by IcoMoon</metadata>
<defs>
<font id="icomoon" horiz-adv-x="1024">
<font-face units-per-em="1024" ascent="960" descent="-64" />
<missing-glyph horiz-adv-x="1024" />
<glyph unicode="&#x20;" horiz-adv-x="512" d="" />
<glyph unicode="&#xe900;" glyph-name="beast" horiz-adv-x="819" d="M297.994 459.385c17.323 6.373 40.578 13.482 56.359 17.129l78.457 18.121c15.427 3.564 40.296 12.937 54.184 20.423l84.655 45.624c12.728 6.86 31.401 23.19 39.885 34.865l49.141 67.627c5.742 7.902 13.137 13.63 21.274 17.090 0.294 0.503 0.62 1.069 0.973 1.697 2.177 3.867 4.375 8.267 6.426 13.073 7.891 18.48 11.203 36.971 7.825 53.098-2.427 11.578 4.984 22.934 16.553 25.362s22.914-4.989 25.339-16.567c5.473-26.116 0.678-52.891-10.357-78.73-0.269-0.629-0.537-1.249-0.806-1.862 2.444-1.554 4.803-3.341 7.051-5.366l60.889-54.849c22.285-20.074 23.162-53.991 1.932-75.241l-9.855-9.865c-4.887-4.892-11.834-7.121-18.652-5.982l-49.798 7.703c-6.133-12.275-13.427-32.815-17.294-48.224-0.225-6.892 4.524-14.811 10.722-17.292 2.983-1.194 5.429-2.759 7.382-4.579 17.678-11.568 33.078-31.11 38.507-50.132l4.049-14.181c5.904-20.682 6.438-52.309 1.238-73.129l-6.156-24.643c-2.866-11.477-14.486-18.455-25.954-15.586s-18.439 14.499-15.573 25.977l6.156 24.643c3.379 13.524 2.973 37.509-0.869 50.969l-4.049 14.181c-3.070 10.754-15.672 24.716-26.025 28.862 0 0-6.196 4.032-9.043 6.323-10.915 8.782-18.661 21.404-21.732 35.083-1.105 4.92-1.604 9.975-1.427 15.038 0.067 1.911 0.229 3.823 0.491 5.727 0.151 1.1 0.336 2.198 0.555 3.291 0 0 1.131 3.429 1.622 5.22 4.808 17.503 12.29 37.949 19.117 51.613l2.53 5.067c6.837 13.685 22.846 21.965 37.939 19.446l43.786-7.304 2.068 2.070c3.894 3.899 3.752 9.455-0.298 13.103l-60.889 54.849c-3.693 3.327-8.108 2.868-11.026-1.15l-49.141-67.627c-12.259-16.871-35.827-37.482-54.21-47.389l-84.655-45.624c-17.252-9.297-45.709-20.024-64.853-24.447l-78.457-18.121c-14.892-3.44-38.349-10.696-54.041-16.648-11.072-5.1-25.096-18.854-29.806-29.462l-17.36-39.094c-10.269-23.125-37.002-42.674-62.198-45.475l-33.707-3.748c-12.245-1.361-30.611-11.244-38.44-20.648l-87.98-105.668c-7.567-9.088-21.062-10.316-30.144-2.743s-10.308 21.081-2.74 30.17l87.98 105.668c14.908 17.905 43.365 33.217 66.597 35.801l33.707 3.748c10.087 1.122 23.724 11.093 27.81 20.295l17.36 39.094c2.887 6.503 7.077 13.121 12.12 19.424-3.797 2.861-7.842 6.375-11.886 10.582-17.995 18.718-27.062 42.859-21.153 71.051 2.427 11.578 13.771 18.995 25.339 16.567s18.979-13.784 16.553-25.362c-2.702-12.897 1.2-23.289 10.105-32.551 4.519-4.701 9.035-7.831 11.366-9.043 1.142-0.594 2.208-1.275 3.192-2.032 1.053 0.612 10.496 4.381 11.343 4.693zM377.497 308.185l-195.424-92.65-29.513-78.769c-4.151-11.077-16.486-16.689-27.555-12.535s-16.674 16.501-12.525 27.579l32.556 86.892c1.951 5.21 5.854 9.455 10.877 11.838l206.186 97.753c1.942 0.92 4.010 1.543 6.136 1.847l223.612 31.973 50.554 30.359c10.136 6.087 23.282 2.798 29.363-7.348s2.795-23.304-7.341-29.389l-54.26-32.585c-2.446-1.47-5.161-2.433-7.985-2.837l-224.682-32.126z" />
<glyph unicode="&#xe901;" glyph-name="circle" horiz-adv-x="819" d="M819 448c0-226.161-183.339-409.5-409.5-409.5s-409.5 183.339-409.5 409.5c0 226.161 183.339 409.5 409.5 409.5s409.5-183.339 409.5-409.5z" />
<glyph unicode="&#xe902;" glyph-name="diamond" horiz-adv-x="819" d="M818.973 591.011c0.009 0.428-0.154 0.81-0.264 1.22-0.073 0.3-0.018 0.61-0.163 0.901-0.037 0.073-0.118 0.109-0.163 0.182-0.037 0.073-0.028 0.154-0.063 0.219l-146.53 236.855c0 0-0.009 0.009-0.018 0.018-0.009 0.018-0.009 0.037-0.018 0.054-0.319 0.482-0.783 0.819-1.238 1.146-0.154 0.118-0.254 0.3-0.428 0.4-0.018 0.009-0.037 0.018-0.054 0.028-0.246 0.137-0.528 0.118-0.792 0.2-0.455 0.146-0.892 0.354-1.383 0.354h-516.73c-0.445 0-0.838-0.2-1.255-0.319-0.319-0.091-0.647-0.082-0.938-0.237-0.018-0.009-0.028-0.009-0.046-0.018-0.173-0.1-0.282-0.291-0.445-0.41-0.445-0.328-0.91-0.655-1.229-1.138-0.009-0.018-0.009-0.037-0.018-0.054 0-0.009-0.009-0.009-0.009-0.009l-146.53-236.883c-0.046-0.063-0.028-0.154-0.063-0.219-0.037-0.073-0.128-0.1-0.163-0.182-0.137-0.282-0.082-0.601-0.163-0.892-0.109-0.41-0.273-0.801-0.264-1.22 0-0.091-0.009-0.182 0-0.273 0.028-0.328 0.209-0.601 0.3-0.919 0.1-0.328 0.073-0.682 0.246-0.983 0.063-0.109 0.182-0.154 0.254-0.254 0.063-0.1 0.054-0.228 0.128-0.319l404.9-523.037c0.037-0.046 0.091-0.054 0.118-0.1 0.191-0.228 0.41-0.41 0.647-0.601 0.109-0.082 0.2-0.154 0.31-0.237 0.173-0.118 0.3-0.273 0.491-0.373 0.009-0.009 0.028 0 0.046-0.009 0.009-0.009 0.018-0.009 0.037-0.018 0.628-0.31 1.329-0.473 2.021-0.473s1.392 0.163 2.030 0.473c0.009 0.009 0.018 0.009 0.037 0.018 0.009 0.009 0.028 0 0.046 0.009 0.191 0.1 0.319 0.254 0.491 0.373 0.109 0.073 0.2 0.146 0.31 0.237 0.228 0.191 0.455 0.373 0.647 0.601 0.037 0.046 0.091 0.054 0.118 0.1l404.891 523.037c0.073 0.091 0.063 0.219 0.128 0.319 0.073 0.1 0.191 0.146 0.254 0.254 0.173 0.31 0.146 0.655 0.246 0.983 0.091 0.319 0.273 0.591 0.3 0.919-0.009 0.091-0.018 0.173-0.018 0.273z" />
<glyph unicode="&#xe903;" glyph-name="friend" horiz-adv-x="819" d="M335.793 571.9l92.79 63.307h103.371c19.030 0 34.458 15.427 34.458 34.458v169.3c-0.204 18.874-15.552 34.095-34.455 34.095-0.001 0-0.001 0-0.002 0h-240.024c-0.026 0-0.059 0-0.091 0-19.030 0-34.458-15.427-34.458-34.458 0 0 0 0 0 0v-169.3c0-0.026 0-0.059 0-0.091 0-19.030 15.427-34.458 34.458-34.458 0.032 0 0.064 0 0.096 0h32.644v-57.157c-0.001-0.055-0.002-0.119-0.002-0.183 0-3.846 3.118-6.964 6.964-6.964 1.609 0 3.090 0.545 4.269 1.462zM364.281 766.342c2.704 2.718 6.446 4.4 10.582 4.4s7.878-1.682 10.581-4.399l15.013-14.832 37.804 37.804c2.708 2.708 6.449 4.383 10.582 4.383 8.264 0 14.964-6.7 14.964-14.964 0-4.132-1.675-7.874-4.383-10.582l-49.922-49.922c-2.29-2.369-5.495-3.84-9.044-3.84s-6.754 1.471-9.041 3.836l-27.135 27.135c-2.664 2.694-4.31 6.4-4.31 10.491s1.646 7.796 4.311 10.492zM819.005 98.004v-75.064h-819.010v69.004c0.044 15.226 7.050 28.806 17.999 37.733 42.239 34.236 89.691 65.065 140.235 90.676 6.067 2.846 7.088 4.381 7.088 6.154 0 0.003 0 0.007 0 0.010v47.841c-6.829 10.906-11.956 23.65-14.626 37.273-5.451 0.711-12.506 8.67-20.104 35.531-10.401 36.718 0.633 42.145 9.948 41.24-1.578 4.215-2.986 9.284-3.975 14.503l-0.095 0.601c-1.752 7.269-2.757 15.613-2.757 24.193s1.005 16.924 2.903 24.922c4.823 18.775 14.683 35.529 28.059 48.728 7.673 8.147 16.247 15.285 25.609 21.302 7.85 5.546 16.255 9.951 25.241 13.129l0.711 0.219c6.808 2.413 14.679 4.003 22.858 4.424 3.316 0.37 6.922 0.576 10.576 0.576 17.528 0 33.949-4.745 48.045-13.019 11.181-5.89 20.662-14.705 27.413-25.414s47.023-3.645 31.196-98.696c-1.084-5.82-2.493-10.89-4.285-15.774 9.259 1.575 20.564-3.851 10.163-40.569-7.597-27.131-14.651-34.367-19.987-34.819-2.528-14.267-7.453-27.001-14.384-38.38l0.275-47.808c0-0.002 0-0.006 0-0.009 0-1.773 1.020-3.308 2.506-4.048 6.628-3.268 25.53-12.763 50.31-27.144 21.555 14.047 47.396 28.899 74.031 42.412 6.543 3.082 7.635 4.734 7.635 6.64 0 0.020 0 0.040 0 0.060v50.371c-7.18 11.973-12.487 25.957-15.088 40.872-5.893 1.182-13.581 9.774-21.81 38.533-10.582 37.532-0.633 45.219 9.044 45.219-5.154 21.886-18.088 98.035 38.617 132.673-6.461 5.458-10.605 13.481-10.852 22.477s64.572-7.284 95.954-0.863 64.935-18.088 70.271-41.782c0 0 63.307 0 38.798-113.229 9.857 0 20.711-6.421 9.767-45.219-8.23-29.121-15.917-37.351-21.705-37.804-2.706-15.645-8.014-29.629-15.502-42.159l0.309-50.178c0-0.017 0-0.036 0-0.056 0-1.907 1.093-3.558 2.686-4.362 59.718-29.896 111.115-63.138 158.426-101.247 10.083-8.507 17.505-23.158 17.505-39.542 0-0.044 0-0.088 0-0.134z" />
<glyph unicode="&#xe904;" glyph-name="help" horiz-adv-x="819" d="M460.543 783.836c-10.441 18.561-29.001 29.001-49.883 29.001s-39.442-10.441-49.883-29.001l-350.336-613.67c-10.441-18.561-10.441-39.442 0-58.003s29.001-29.001 49.883-29.001h698.353c20.882 0 39.442 10.441 49.883 29.001s10.441 39.442 0 58.003l-348.017 613.67zM789.997 123.764c-5.8-10.441-17.401-17.401-30.161-17.401h-698.353c-12.76 0-23.201 6.96-30.161 17.401-5.8 10.441-5.8 24.361 0 34.802v0l349.177 613.67c5.8 10.441 17.401 17.401 30.161 17.401s24.361-6.96 30.161-17.401l349.177-613.67c6.96-10.441 6.96-23.201 0-34.802zM415.3 542.543c-6.96 0-11.601-4.641-11.601-11.601v-162.408c0-6.96 4.641-11.601 11.601-11.601s11.601 4.641 11.601 11.601v162.408c0 5.8-4.641 11.601-11.601 11.601zM415.3 310.532c-6.96 0-11.601-4.641-11.601-11.601v-34.802c0-6.96 4.641-11.601 11.601-11.601s11.601 4.641 11.601 11.601v34.802c0 5.8-4.641 11.601-11.601 11.601z" />
<glyph unicode="&#xe905;" glyph-name="octogan" horiz-adv-x="819" d="M239.88 38.5l-239.88 239.867v339.253l239.88 239.88h339.253l239.867-239.88v-339.253l-239.867-239.867z" />
<glyph unicode="&#xe906;" glyph-name="search" horiz-adv-x="819" d="M300.072 779.235c-122.299 0-221.793-99.493-221.793-221.793s99.493-221.793 221.793-221.793 221.793 99.493 221.793 221.793-99.493 221.793-221.793 221.793zM300.072 361.743c-107.909 0-195.699 87.791-195.699 195.699s87.791 195.699 195.699 195.699 195.699-87.791 195.699-195.699-87.791-195.699-195.699-195.699zM803.737 146.004l-184.479 184.492c-11.599 11.612-28.716 14.351-42.962 8.31l-37.3 37.3c38.318 50.425 61.15 113.258 61.15 181.336 0 165.457-134.589 300.072-300.072 300.072-165.47 0-300.072-134.615-300.072-300.072s134.602-300.072 300.072-300.072c68.078 0 130.911 22.832 181.296 61.175l37.313-37.313c-6.041-14.26-3.301-31.365 8.297-42.962l184.518-184.505c15.251-15.278 40.158-15.238 55.343 0l36.896 36.896c15.265 15.278 15.265 40.092 0 55.343zM26.093 557.442c0 151.079 122.913 273.979 273.979 273.979s273.979-122.9 273.979-273.979-122.913-273.979-273.979-273.979-273.979 122.9-273.979 273.979zM522.244 355.963l33.529-33.529-20.678-20.705-33.529 33.529c7.215 6.563 14.13 13.477 20.678 20.705zM785.29 109.108l-36.896-36.883c-5.101-5.114-13.36-5.101-18.447 0l-184.479 184.492c-5.101 5.088-5.101 13.36 0 18.461l36.896 36.896c5.076 5.076 13.333 5.101 18.447 0l184.479-184.518c5.101-5.088 5.101-13.373 0-18.447z" />
<glyph unicode="&#xe907;" glyph-name="semicircle" horiz-adv-x="819" d="M409.5 857.505c-226.164 0-409.505-183.341-409.505-409.505s183.341-409.505 409.505-409.505c226.164 0 409.505 183.341 409.505 409.505-0.599 225.921-183.583 408.905-409.447 409.505zM409.5 824.48c192.986-0.2 352.052-145.171 374.455-332.147-56.363 53.42-204.445 117.092-374.455 117.092-179.521 0-330.246-52.839-374.499-118.888 22.261 189.013 181.366 334.294 374.467 334.604z" />
<glyph unicode="&#xe908;" glyph-name="settings" horiz-adv-x="819" d="M408.487 38.5c-12.163 0-23.314 0-35.477 1.013-4.055 0-7.095 3.041-9.123 6.081l-39.531 106.43c-21.286 6.081-42.571 14.191-61.83 25.34l-89.199-56.762c-4.055-2.027-8.109-2.027-11.15 0-29.395 22.299-55.749 47.64-78.048 77.035-2.027 3.041-3.041 8.109-1.013 11.15l54.736 93.252c-10.136 19.259-18.246 40.545-24.327 61.83l-104.403 28.382c-4.055 1.013-7.095 4.055-7.095 9.123-2.027 15.204-2.027 30.409-2.027 45.613 0 19.259 1.013 37.503 4.055 56.762 1.013 4.055 3.041 7.095 7.095 8.109l107.443 31.422c6.081 19.259 15.204 38.518 25.34 56.762l-48.654 98.32c-2.027 4.055-1.013 8.109 1.013 11.15 23.314 28.382 50.681 52.708 81.089 73.995 4.055 2.027 8.109 2.027 12.163 0l83.116-62.844c18.246 9.123 36.49 16.218 55.749 21.286l20.272 102.375c1.013 4.055 4.055 7.095 9.123 8.109 39.531 5.068 80.076 4.055 118.593-2.027 4.055-1.013 7.095-4.055 8.109-8.109l18.246-103.388c17.231-5.068 33.45-12.163 48.654-20.272l100.348 50.681c3.041 2.027 8.109 1.013 11.15-1.013 24.327-19.259 46.626-41.558 65.885-64.872 2.027-3.041 3.041-7.095 1.013-11.15l-50.681-99.335c9.123-16.218 16.218-33.45 22.299-51.694l106.43-31.422c4.055-1.013 7.095-4.055 7.095-8.109 2.027-18.246 4.055-36.49 4.055-54.736 0-14.191-1.013-29.395-2.027-42.571 0-4.055-3.041-7.095-7.095-9.123l-104.403-31.422c-5.068-18.246-12.163-35.477-20.272-51.694l52.708-100.348c2.027-3.041 1.013-8.109-1.013-11.15-18.246-24.327-40.545-47.64-63.858-67.912-3.041-3.041-7.095-3.041-11.15-1.013l-96.294 50.681c-18.246-11.15-37.503-19.259-57.776-26.354l-27.367-106.43c-1.013-4.055-4.055-7.095-8.109-7.095-23.314-2.027-43.586-4.055-63.858-4.055zM381.12 59.785c26.354-2.027 52.708-1.013 78.048 2.027l27.367 105.416c1.013 3.041 3.041 6.081 7.095 7.095 22.299 7.095 43.586 17.231 63.858 29.395 3.041 2.027 7.095 2.027 10.136 0l95.28-49.667c19.259 16.218 36.49 34.463 51.694 54.736l-51.694 99.335c-2.027 3.041-2.027 6.081 0 9.123 9.123 18.246 17.231 38.518 22.299 57.776 1.013 3.041 3.041 6.081 7.095 7.095l103.388 31.422c1.013 11.15 1.013 22.299 1.013 34.463 0 15.204-1.013 30.409-3.041 45.613l-105.416 30.409c-3.041 1.013-6.081 3.041-7.095 7.095-6.081 20.272-14.191 39.531-24.327 57.776-2.027 3.041-2.027 6.081 0 9.123l50.681 98.32c-16.218 19.259-33.45 37.503-53.722 52.708l-99.335-49.667c-3.041-1.013-6.081-1.013-9.123 0-17.231 9.123-36.49 17.231-55.749 23.314-4.055 1.013-6.081 4.055-7.095 8.109l-17.231 102.375c-32.435 5.068-65.885 5.068-98.32 2.027l-20.272-101.362c-1.013-4.055-4.055-7.095-7.095-8.109-22.299-5.068-43.586-14.191-63.858-24.327-3.041-2.027-8.109-1.013-11.15 1.013l-82.103 61.83c-24.327-17.231-47.64-38.518-66.898-60.817l48.654-97.307c2.027-3.041 1.013-7.095 0-10.136-12.163-19.259-21.286-40.545-28.382-61.83-1.013-3.041-4.055-6.081-7.095-7.095l-105.416-31.422c-2.027-15.204-3.041-31.422-3.041-47.64 0-12.163 1.013-24.327 2.027-36.49l102.375-28.382c3.041-1.013 6.081-4.055 7.095-7.095 6.081-23.314 15.204-46.626 27.367-67.912 2.027-3.041 2.027-7.095 0-10.136l-54.736-92.239c19.259-23.314 40.545-44.599 63.858-63.858l88.184 56.762c3.041 2.027 7.095 2.027 10.136 0 21.286-12.163 44.599-21.286 67.912-27.367 3.041-1.013 6.081-3.041 7.095-6.081l39.531-105.416zM408.487 259.469c-6.081 0-10.136 4.055-10.136 10.136s4.055 10.136 10.136 10.136c93.252 0 168.26 76.021 168.26 168.26s-75.008 168.26-168.26 168.26-168.26-75.008-168.26-168.26c0-6.081-4.055-10.136-10.136-10.136s-10.136 4.055-10.136 10.136c0 104.403 85.144 188.533 188.533 188.533s188.533-84.131 188.533-188.533-84.131-188.533-188.533-188.533z" />
<glyph unicode="&#xe909;" glyph-name="sidetri" horiz-adv-x="819" d="M401.717 784.926l391.943-678.883 11.768 20.457h-783.884l11.768-20.457 391.943 678.883c1.012 1.854 1.608 4.063 1.608 6.41 0 7.498-6.079 13.578-13.578 13.578-4.807 0-9.029-2.497-11.442-6.264l-392.065-678.847c-1.135-1.949-1.805-4.292-1.805-6.789 0-7.515 6.065-13.614 13.568-13.668h783.889c7.507 0.054 13.572 6.152 13.572 13.668 0 2.498-0.67 4.84-1.841 6.854l-391.907 678.818c-2.409 4.067-6.774 6.751-11.768 6.751-7.528 0-13.631-6.103-13.631-13.631 0-2.536 0.692-4.909 1.898-6.942zM29.779 102.784l586.556 337.812c3.822 2.445 6.319 6.668 6.319 11.475 0 7.498-6.079 13.578-13.578 13.578-2.347 0-4.555-0.596-6.481-1.643l-586.575-337.506c-3.822-2.445-6.319-6.668-6.319-11.475 0-7.498 6.079-13.578 13.578-13.578 2.347 0 4.555 0.596 6.481 1.643zM47.702 113.645l662.862 156.687c17.017 3.982 9.776 30.233-7.242 26.16l-662.771-156.687c-17.017-3.982-9.776-30.233 7.242-26.16zM31.137 103.326l486.080 515.951c11.948 12.673-7.151 31.953-19.19 19.19l-486.080-515.951c-11.948-12.673 7.151-31.953 19.19-19.19z" />
<glyph unicode="&#xe90a;" glyph-name="square" horiz-adv-x="819" d="M0 857.483h819v-818.967h-819v818.967z" />
<glyph unicode="&#xe90b;" glyph-name="triangle" horiz-adv-x="819" d="M0 93.356l409.484 709.287 409.516-709.287z" />
<glyph unicode="&#xe90c;" glyph-name="trophy" horiz-adv-x="819" d="M406.68 391.774c-135.561 0-246.012 110.269-246.012 246.012v140.292h492.024v-140.292c0-135.561-110.269-246.012-246.012-246.012zM188.144 750.784v-112.998c0-120.641 98.077-218.718 218.718-218.718v0c120.641 0 218.718 98.077 218.718 218.718v112.998h-437.436zM639.045 417.976c-7.46 0-13.647 6.187-13.647 13.647s6.187 13.647 13.647 13.647c84.248 0 152.666 68.6 152.666 152.666s-68.6 152.666-152.666 152.666c-7.46 0-13.647 6.187-13.647 13.647s6.187 13.647 13.647 13.647c99.351 0 179.96-80.791 179.96-179.96s-80.609-179.96-179.96-179.96zM179.955 417.976c-99.351 0-179.96 80.791-179.96 179.96s80.791 179.96 179.96 179.96c7.46 0 13.647-6.187 13.647-13.647s-6.187-13.647-13.647-13.647c-84.248 0-152.666-68.6-152.666-152.666s68.6-152.666 152.666-152.666c7.46 0 13.647-6.187 13.647-13.647s-6.005-13.647-13.647-13.647zM552.613 117.921c0 0 0 0 0 0h-291.685c-5.277 0-10.008 2.911-12.191 7.642-2.366 4.731-1.638 10.19 1.456 14.375l145.751 186.693c2.547 3.275 6.551 5.277 10.736 5.277s8.188-2.002 10.736-5.277l145.387-186.147c2.184-2.366 3.457-5.641 3.457-9.098 0-7.278-6.005-13.465-13.647-13.465zM288.95 145.216h235.64l-117.911 150.846-117.729-150.846zM406.68 304.614c-7.46 0-13.647 6.187-13.647 13.647v87.16c0 7.46 6.187 13.647 13.647 13.647s13.647-6.187 13.647-13.647v-87.16c0-7.46-6.005-13.647-13.647-13.647z" />
<glyph unicode="&#xe90d;" glyph-name="uptri" horiz-adv-x="819" d="M409.5 960l-407.349-135.391 407.349-888.609 407.349 888.609zM61.615 800.084l347.884 115.569 349.563-116.241-349.563-762.624v626.897z" />
<glyph unicode="&#xe90e;" glyph-name="level" horiz-adv-x="819" d="M410.379 766.281l-373.829-650.77h747.66l-373.829 650.77zM3.509 108.967l395.697 688.919c1.117 1.916 2.714 3.671 4.789 4.789 6.066 3.512 13.886 1.437 17.398-4.629l395.218-688.121c1.437-2.075 2.394-4.629 2.394-7.343 0-7.024-5.747-12.77-12.77-12.77h-791.714c-2.075 0-4.31 0.479-6.385 1.756-6.066 3.512-8.141 11.334-4.629 17.398zM146.528 319.666c-7.024 0-12.77 5.747-12.77 12.77s5.747 12.77 12.77 12.77h527.863c7.024 0 12.77-5.747 12.77-12.77s-5.747-12.77-12.77-12.77h-527.863zM278.374 549.358c-7.024 0-12.77 5.747-12.77 12.77s5.747 12.77 12.77 12.77h263.851c7.024 0 12.77-5.747 12.77-12.77s-5.747-12.77-12.77-12.77h-263.851z" />
<glyph unicode="&#xe90f;" glyph-name="name" horiz-adv-x="819" d="M-0.005 857.505v-819.010h819.010v819.010h-819.010zM791.243 66.257h-763.484v763.484h763.484v-763.484zM124.929 621.519c7.635 0 13.882 6.247 13.882 13.882v41.644h166.578v-471.972h-69.408c-7.635 0-13.882-6.247-13.882-13.882s6.247-13.882 13.882-13.882h166.578c7.635 0 13.882 6.247 13.882 13.882s-6.247 13.882-13.882 13.882h-69.408v471.972h166.578v-41.644c0-7.635 6.247-13.882 13.882-13.882s13.882 6.247 13.882 13.882v55.526c0 7.635-6.247 13.882-13.882 13.882h-388.683c-7.635 0-13.882-6.247-13.882-13.882v-55.526c0-7.635 6.247-13.882 13.882-13.882zM458.086 482.704v-27.763c0-7.635 6.247-13.882 13.882-13.882s13.882 6.247 13.882 13.882v13.882h83.289v-263.749h-41.644c-7.635 0-13.882-6.247-13.882-13.882s6.247-13.882 13.882-13.882h111.052c7.635 0 13.882 6.247 13.882 13.882s-6.247 13.882-13.882 13.882h-41.644v263.749h83.289v-13.882c0-7.635 6.247-13.882 13.882-13.882s13.882 6.247 13.882 13.882v27.763c0 7.635-6.247 13.882-13.882 13.882h-222.105c-7.635 0-13.882-6.247-13.882-13.882z" />
<glyph unicode="&#xe910;" glyph-name="rarity" horiz-adv-x="819" d="M597.569 577.724c-4.073 4.676-12.485 8.507-18.696 8.507h-387.874c-6.203 0-14.607-3.831-18.67-8.507l-122.084-140.505c-4.063-4.685-3.986-12.286 0.164-16.885l326.961-361.308c4.15-4.608 10.966-4.608 15.134 0l326.953 361.308c4.159 4.598 4.244 12.199 0.181 16.885l-122.066 140.505zM429.007 552.626h125.139c6.212 0 8.602-4.314 5.314-9.585l-54.088-86.857c-3.295-5.271-9.068-5.574-12.864-0.656l-67.901 88.151c-3.787 4.927-1.812 8.947 4.4 8.947zM401.372 540.788l68.928-89.479c3.805-4.927 1.829-8.939-4.392-8.939h-149.849c-6.212 0-8.033 3.9-4.046 8.663l75.243 90.041c3.968 4.771 10.336 4.633 14.115-0.284zM221.887 552.626h137.476c6.195 0 8.015-3.9 4.030-8.663l-74.829-89.531c-3.978-4.771-10.042-4.409-13.46 0.751l-58.281 88.038c-3.408 5.168-1.139 9.404 5.065 9.404zM106.644 450.886l76.097 87.59c4.073 4.676 10.207 4.288 13.632-0.897l56.806-85.813c3.417-5.16 1.148-9.404-5.065-9.404h-137.597c-6.195 0.008-7.946 3.848-3.874 8.525zM342.461 147.703l-234.764 259.431c-4.168 4.573-2.493 8.343 3.71 8.343h151.419c6.195 0 12.614-4.884 14.279-10.871l69.929-254.392c1.639-5.987-0.422-7.101-4.573-2.511zM386.515 132.363c-2.071-5.867-5.090-5.738-6.73 0.233l-74.812 272.002c-1.648 5.979 2.087 10.871 8.292 10.871h161.893c6.195 0 9.585-4.771 7.523-10.612l-96.166-272.494zM662.183 407.134l-238.672-263.753c-4.141-4.59-5.867-3.571-3.796 2.287l91.481 259.19c2.054 5.85 8.817 10.612 15.039 10.612h132.256c6.187 0.008 7.868-3.762 3.693-8.334zM659.362 442.37h-127.545c-6.203 0-8.602 4.314-5.306 9.577l50.732 81.481c3.262 5.263 9.284 5.755 13.356 1.070l72.647-83.613c4.063-4.676 2.312-8.516-3.882-8.516zM109.206 644.9c2.908 3.511 2.424 8.706-1.078 11.622l-93.604 77.608c-3.503 2.899-8.714 2.433-11.622-1.087-2.908-3.511-2.416-8.706 1.087-11.622l93.604-77.608c3.511-2.899 8.706-2.416 11.613 1.087zM804.483 729.169l-93.612-77.599c-3.503-2.916-3.986-8.101-1.095-11.613 2.916-3.511 8.119-3.986 11.631-1.078l93.604 77.599c3.503 2.899 3.995 8.101 1.095 11.622-2.916 3.503-8.101 3.978-11.622 1.070zM399.344 703.406c4.538-0.13 8.352 3.46 8.473 8.024l3.357 121.541c0.13 4.555-3.46 8.343-8.006 8.473-4.555 0.138-8.352-3.46-8.49-8.015l-3.357-121.541c-0.121-4.555 3.468-8.352 8.024-8.481z" />
<glyph unicode="&#xe911;" glyph-name="type" horiz-adv-x="819" d="M721.182 779.609c5.477 2.623 10.37 5.525 14.095 8.502l4.446 3.551c41.748 33.358 79.283 0.691 52.943-45.352l-14.095-24.637c-9.001-15.732-16.922-45.503-16.922-63.691v-124.345c0-20.624 4.219-54.824 9.215-74.71l7.516-29.923c7.694-30.629-1.745-71.805-22.010-96.097l-16.044-19.231c-9.976-11.958-18.039-37.503-16.744-53.043l20.726-248.418c1.266-15.177-10.025-28.505-25.218-29.768s-28.539 10.014-29.805 25.189l-20.726 248.418c-2.5 29.966 10.086 69.839 29.349 92.929l16.044 19.231c8.984 10.767 14.271 33.837 10.873 47.369l-7.516 29.923c-6.1 24.281-10.875 62.987-10.875 88.131v124.345c0 18.094 4.423 41.027 11.307 61.468-13.476-3.952-27.093-6.246-39.042-6.246h-13.548c-16.057 0-35.639 3.804-53.878 9.948 7.663-21.36 12.654-46.001 12.654-65.179v-68.777c0-38.067-30.879-69.017-68.985-69.017h-193.629c-19.61 0-52.398-5.769-70.849-12.471l-35.012-12.717c-31.424-11.413-56.034-49.546-53.473-82.807l3.212-41.706c3.011-39.095-17.166-88.396-46.703-114.21l-37.637-32.894c-12.647-11.053-27.144-36.068-30.443-52.538l-33.28-166.199c-2.99-14.933-17.535-24.618-32.485-21.631s-24.648 17.513-21.656 32.446l33.28 166.199c5.682 28.375 26.429 64.178 48.225 83.227l37.637 32.894c16.443 14.371 29.684 46.726 28.009 68.478l-3.212 41.706c-4.463 57.94 34.944 118.993 89.655 138.867l35.012 12.717c24.497 8.899 63.674 15.792 89.717 15.792h193.629c7.569 0 13.771 6.214 13.771 13.867v68.777c0 18.13-7.936 47.875-17.004 63.64l-14.174 24.637c-25.869 44.962 9.548 78.63 52.977 49.712l14.013-9.331c1.647-1.096 3.479-2.182 5.458-3.242-12.675 37.020-17.774 74.926-11.089 111.564 2.733 14.982 17.111 24.913 32.109 22.184s24.943-17.089 22.21-32.073c-5.101-27.954-0.218-59.255 11.305-90.243 0.568-1.529 1.145-3.034 1.728-4.512 0.583 1.478 1.158 2.981 1.728 4.512 11.524 30.988 16.404 62.289 11.305 90.243-2.733 14.982 7.209 29.342 22.21 32.073s29.376-7.2 32.109-22.184c6.914-37.887 1.223-77.131-12.412-115.346v0zM271.835 20.342c7.035-13.512 1.77-30.161-11.757-37.187s-30.197-1.768-37.23 11.744l-59.842 114.948c-16.18 31.079-9.232 73.698 15.938 98.117l82.533 80.067c21.601 20.957 60.463 36.697 90.573 36.697h170.221c35.86 0 69.701-26.932 77.595-61.871l28.479-126.079c5.233-23.162 11.795-60.408 14.789-83.933l5.362-42.138c1.923-15.107-8.78-28.912-23.906-30.831s-28.946 8.769-30.869 23.878l-5.362 42.138c-2.771 21.781-9.030 57.298-13.875 78.749l-28.479 126.079c-2.203 9.753-13.646 18.86-23.734 18.86h-170.221c-15.747 0-40.809-10.152-52.103-21.109l-82.533-80.067c-7.697-7.468-10.338-23.668-5.422-33.114l59.842-114.948z" />
<glyph unicode="&#xe912;" glyph-name="file" horiz-adv-x="819" d="M530.812 520.399c-57.396 49.57-140.882 62.615-212.627 27.393-46.96-23.481-80.876-62.615-97.834-112.183-7.826-24.785-11.74-49.57-10.436-74.354-39.134-39.134-53.482-73.049-41.742-97.834 9.131-19.567 32.611-30.003 69.137-30.003 9.131 0 19.567 1.304 30.003 2.608 36.525-36.525 86.094-56.092 136.968-56.092 28.697 0 58.701 6.522 86.094 19.567 75.659 37.83 116.097 120.010 105.661 199.583 33.916 33.916 50.874 67.831 37.83 93.92-11.74 26.089-46.96 35.22-103.053 27.393zM246.439 427.783c14.349 41.742 44.352 76.963 84.79 96.53 23.481 11.74 49.57 16.959 74.354 16.959 61.309 0 121.315-33.916 150.013-92.616 6.522-13.045 10.436-26.089 13.045-39.134-30.003-28.697-75.659-61.309-135.664-91.312-54.787-27.393-108.271-45.656-153.927-53.482-9.131 10.436-16.959 22.175-23.481 35.22-20.871 40.438-23.481 86.094-9.131 127.838zM192.957 276.464c-3.914 7.826 1.304 26.089 23.481 52.178 3.914-14.349 7.826-27.393 14.349-40.438 5.218-9.131 10.436-18.263 15.653-26.089-27.393-1.304-48.264 3.914-53.482 14.349zM478.633 224.286c-60.005-30.003-129.142-19.567-178.71 19.567 44.352 9.131 93.92 27.393 143.49 52.178 46.96 23.481 92.616 52.178 127.838 82.182 1.304-62.615-32.611-123.924-92.616-153.927zM610.383 483.874c5.218-10.436-2.608-28.697-20.871-52.178-2.608 9.131-6.522 19.567-11.74 28.697-6.522 13.045-14.349 24.785-23.481 36.525 35.22 1.304 52.178-5.218 56.092-13.045zM285.573 348.21c1.304 0 1.304 0 2.608 0 6.522 1.304 11.74 7.826 10.436 15.653-7.826 39.134 10.436 78.268 45.656 97.834 6.522 3.914 7.826 11.74 5.218 18.263-3.914 6.522-11.74 7.826-18.263 5.218-44.352-24.785-67.831-75.659-58.701-126.532 1.304-6.522 6.522-10.436 13.045-10.436zM530.812 885.647h-35.22c-6.522 41.742-43.048 74.354-86.094 74.354s-79.572-32.611-86.094-74.354h-35.22c-37.83 0-67.831-27.393-67.831-60.005v-11.74h-130.446c-7.826 0-13.045-5.218-13.045-13.045v-851.812c0-7.826 5.218-13.045 13.045-13.045h639.185c7.826 0 13.045 5.218 13.045 13.045v851.812c0 7.826-5.218 13.045-13.045 13.045h-130.446v11.74c-1.304 32.611-31.307 60.005-67.831 60.005zM247.745 825.643c0 19.567 18.263 33.916 41.742 33.916h45.656c7.826 0 13.045 5.218 13.045 13.045 0 33.916 27.393 61.309 61.309 61.309s61.309-27.393 61.309-61.309c0-7.826 5.218-13.045 13.045-13.045h46.96c23.481 0 41.742-15.653 41.742-33.916v-62.615h-324.811v62.615zM716.044 787.813v-825.723h-613.096v825.723h117.401v-37.83c0-7.826 5.218-13.045 13.045-13.045h350.9c7.826 0 13.045 5.218 13.045 13.045v37.83h118.705zM429.063 872.603c0-10.806-8.761-19.567-19.567-19.567s-19.567 8.761-19.567 19.567c0 10.806 8.761 19.567 19.567 19.567s19.567-8.761 19.567-19.567z" />
<glyph unicode="&#xe913;" glyph-name="filter" horiz-adv-x="819" d="M323.377 447.984c0-55.159-44.715-99.873-99.873-99.873s-99.873 44.715-99.873 99.873c0 55.159 44.715 99.873 99.873 99.873s99.873-44.715 99.873-99.873zM323.377 35.873c0-55.159-44.715-99.873-99.873-99.873s-99.873 44.715-99.873 99.873c0 55.159 44.715 99.873 99.873 99.873s99.873-44.715 99.873-99.873zM594.033 879.985h-272.637c-9.205 45.625-49.536 80.015-97.876 80.015-55.197 0-99.873-44.743-99.873-99.873 0-55.179 44.676-99.873 99.873-99.873 43.512 0 80.415 27.848 94.115 66.682l276.415-0.366c26.433 0 47.939-21.49 47.939-47.955v-460.665c0-26.45-21.506-47.939-47.939-47.939h-155.918v85.109c0 5.226-2.398 8.739-7.075 10.637-4.495 1.93-8.64 1.065-12.433-2.463l-113.339-113.373c-2.097-2.581-3.162-5.293-3.162-8.089 0-3.097 1.065-5.809 3.162-8.156l112.989-113.024c2.83-2.363 5.659-3.562 8.489-3.562 3.312 0 6.043 1.065 8.189 3.18 2.097 2.148 3.162 4.844 3.162 8.156v88.655h155.901c55.929 0 101.338 44.926 101.338 100.873v460.665c0.016 55.963-45.393 101.371-101.322 101.371z" />
<glyph unicode="&#xe914;" glyph-name="time" horiz-adv-x="819" d="M409.5 857.505c-225.805 0-409.505-183.701-409.505-409.505s183.701-409.505 409.505-409.505 409.505 183.701 409.505 409.505-183.701 409.505-409.505 409.505zM409.5 75.723c-205.274 0-372.277 167.003-372.277 372.277s167.003 372.277 372.277 372.277 372.277-167.003 372.277-372.277-167.003-372.277-372.277-372.277zM428.114 454.998v283.061c0 10.275-8.339 18.614-18.614 18.614s-18.614-8.339-18.614-18.614v-290.060c0-4.505 1.638-8.86 4.607-12.257l162.871-186.139c3.686-4.207 8.832-6.356 14.016-6.356 4.347 0 8.721 1.517 12.248 4.607 7.735 6.776 8.516 18.521 1.75 26.264l-158.265 180.881z" />
<glyph unicode="&#xe915;" glyph-name="flag" horiz-adv-x="819" d="M57.249 758.879c-1.149 1.149-2.298 2.298-3.448 2.298 4.597-11.493 9.195-24.134 14.941-35.627-2.298-3.448-5.746-8.044-8.044-11.493-13.791 1.149-26.434 3.448-40.224 4.597 18.388-14.941 26.434-67.807 34.478-89.644 10.344-29.881 21.836-59.761 33.329-89.644 22.985-63.21 45.971-125.271 70.105-188.48 45.971-122.971 85.046-251.69 143.659-368.915 22.985-45.971 96.539-13.791 82.747 34.478-43.673 149.405-113.778 291.915-171.241 433.274-26.434 64.359-51.717 128.718-78.151 191.927-19.537 43.673-34.478 114.927-83.897 133.315-11.493 4.597-24.134-1.149-32.18-8.044-10.344-9.195-12.642-18.388-13.791-32.18-1.149-11.493 6.895-21.836 16.090-27.583 1.149-1.149 2.298-1.149 3.448-2.298 34.478-21.836 64.359 31.030 32.18 54.015v0zM77.935 693.372c80.449 48.269 150.554 104.583 239.049 140.21 83.897 34.478 170.092 44.822 258.586 64.359 33.329 6.895 22.985 55.165-8.044 56.314-93.091 5.746-190.778-25.283-275.825-60.912-86.195-36.776-182.734-87.344-242.496-162.047-17.239-19.537 3.448-52.866 28.732-37.926v0zM250.326 392.262c97.688 133.315 295.362 87.344 420.632 164.346 34.478 21.836 17.239 68.956-19.537 72.405-54.015 5.746-111.479-16.090-163.196-27.583-45.971-10.344-91.942-20.687-135.614-36.776-73.554-27.583-134.464-71.254-156.3-149.405-10.344-34.478 34.478-49.419 54.015-22.985v0zM534.196 909.433c25.283-79.3 49.419-157.449 71.254-236.749 8.044-27.583 49.419-16.090 42.522 11.493-19.537 81.598-47.12 163.196-80.449 239.049-8.044 19.537-40.224 5.746-33.329-13.791v0zM597.406 822.089c28.732 10.344 58.612 9.195 89.644 6.895 25.283-1.149 35.627 36.776 12.642 48.269-42.522 21.836-89.644 9.195-121.822-22.985-12.642-12.642 1.149-39.075 19.537-32.18v0zM558.33 516.384c9.195-25.283 26.434-62.061 57.463-62.061 25.283 0 55.165 16.090 79.3 24.134s47.12 17.239 70.105 28.732c24.134 12.642 6.895 49.419-18.388 43.673-49.419-12.642-103.434-32.18-147.107-58.612 6.895 0 13.791 0 21.836 0-13.791 10.344-21.836 21.836-29.881 36.776-9.195 19.537-40.224 6.895-33.329-12.642v0zM651.421 856.567c10.344-95.39 51.717-202.271 111.479-279.273 16.090-19.537 51.717 1.149 42.522 25.283-17.239 47.12-41.373 90.793-59.761 136.763-17.239 42.522-31.030 87.344-49.419 129.868-9.195 20.687-47.12 10.344-44.822-12.642v0zM198.608 673.833c24.134 19.537 47.12 39.075 74.702 54.015 26.434 14.941 56.314 22.985 85.046 33.329 22.985 8.044 20.687 44.822-5.746 43.673-71.254-1.149-147.107-45.971-186.181-105.732-14.941-20.687 14.941-39.075 32.18-25.283v0z" />
<glyph unicode="&#xe916;" glyph-name="open" horiz-adv-x="794" d="M661.773 496.435l132.229 88.188-264.802 176.455-86.917-57.884 14.503-21.782 72.414 48.223 217.664-145.039-108.62-72.466-181.404 120.98-14.53-21.756 172.352-114.919-217.664-144.986-217.585 145.012 172.247 114.892-14.503 21.756-181.404-120.98-108.62 72.466 217.611 145.039 72.414-48.276 14.503 21.756-86.917 57.937-264.749-176.429 132.229-88.188-132.229-88.082 142.737-95.228v-105.101l254.268-169.494 254.215 169.494v105.101l142.789 95.228-132.229 88.082zM514.644 398.428l123.548 82.286 108.62-72.361-217.638-145.092-108.62 72.44 94.090 62.727zM155.806 480.714v0 0l21.915-14.556 195.723-130.481-108.673-72.414-217.585 145.065 108.62 72.387zM168.908 295.709l95.863-63.918 119.18 79.454v-232.565l-215.044 143.371v73.658zM625.090 222.052l-215.018-143.371v232.565l119.128-79.454 95.863 63.918 0.026-73.658zM383.923 807.395v-266.707h26.176v266.707l35.916-35.863 18.447 18.474-67.465 67.465-67.438-67.465 18.474-18.474z" />
<glyph unicode="&#xe917;" glyph-name="chip" horiz-adv-x="819" d="M409.907 296.897c-2.41 0-4.811 0.551-7.026 1.663l-370.781 185.386c-5.32 2.664-8.689 8.103-8.689 14.051s3.36 11.387 8.689 14.051l370.781 185.394c4.421 2.214 9.63 2.214 14.051 0l370.781-185.394c5.32-2.664 8.68-8.103 8.68-14.051s-3.36-11.387-8.68-14.051l-370.781-185.394c-2.214-1.103-4.615-1.654-7.026-1.654zM74.254 497.997l335.653-167.823 335.653 167.823-335.653 167.823-335.653-167.823zM409.907 218.335c-8.68 0-15.714 7.034-15.714 15.714v78.553c0 8.68 7.034 15.714 15.714 15.714s15.714-7.034 15.714-15.714v-78.553c-0.008-8.68-7.034-15.714-15.714-15.714zM17.957 389.026c-5.566 0-10.954 2.961-13.805 8.188-4.158 7.619-1.35 17.164 6.27 21.314l55.745 30.41c7.611 4.149 17.164 1.35 21.314-6.27 4.158-7.619 1.35-17.164-6.27-21.314l-55.745-30.41c-2.393-1.298-4.973-1.917-7.509-1.917zM17.94 340.883c-8.68 0-15.714 7.034-15.714 15.714v48.143c0 8.68 7.034 15.714 15.714 15.714s15.714-7.034 15.714-15.714v-48.143c0-8.68-7.034-15.714-15.714-15.714zM83.129 354.467c-5.566 0-10.954 2.961-13.805 8.188-4.158 7.619-1.35 17.164 6.27 21.314l55.745 30.41c7.619 4.149 17.164 1.35 21.314-6.27 4.158-7.619 1.35-17.164-6.27-21.314l-55.745-30.41c-2.384-1.298-4.963-1.917-7.509-1.917zM83.112 306.324c-8.68 0-15.714 7.034-15.714 15.714v48.143c0 8.68 7.034 15.714 15.714 15.714s15.714-7.034 15.714-15.714v-48.143c0-8.68-7.034-15.714-15.714-15.714zM153.070 316.76c-5.566 0-10.954 2.961-13.805 8.188-4.158 7.619-1.35 17.164 6.27 21.314l55.745 30.41c7.611 4.149 17.156 1.35 21.314-6.27s1.35-17.164-6.27-21.314l-55.745-30.41c-2.384-1.298-4.963-1.917-7.509-1.917zM153.053 268.617c-8.68 0-15.714 7.034-15.714 15.714v48.143c0 8.68 7.034 15.714 15.714 15.714s15.714-7.034 15.714-15.714v-48.143c0-8.68-7.034-15.714-15.714-15.714zM224.529 282.193c-5.566 0-10.954 2.961-13.805 8.188-4.158 7.619-1.35 17.164 6.27 21.314l55.745 30.41c7.619 4.149 17.164 1.35 21.314-6.27s1.35-17.164-6.27-21.314l-55.745-30.41c-2.393-1.298-4.963-1.917-7.509-1.917zM224.513 234.050c-8.68 0-15.714 7.034-15.714 15.714v48.143c0 8.68 7.034 15.714 15.714 15.714s15.714-7.034 15.714-15.714v-48.143c0-8.68-7.034-15.714-15.714-15.714zM299.943 244.486c-5.566 0-10.954 2.961-13.805 8.188-4.158 7.619-1.35 17.164 6.27 21.314l55.745 30.41c7.619 4.149 17.164 1.35 21.314-6.27 4.158-7.619 1.35-17.164-6.27-21.314l-55.745-30.41c-2.393-1.298-4.973-1.917-7.509-1.917zM299.927 196.342c-8.68 0-15.714 7.034-15.714 15.714v48.143c0 8.68 7.034 15.714 15.714 15.714s15.714-7.034 15.714-15.714v-48.143c0-8.68-7.034-15.714-15.714-15.714zM801.043 389.026c-2.537 0-5.117 0.619-7.509 1.917l-55.745 30.41c-7.619 4.158-10.428 13.695-6.27 21.314s13.686 10.42 21.314 6.27l55.745-30.41c7.619-4.158 10.428-13.695 6.27-21.314-2.851-5.226-8.238-8.188-13.805-8.188zM801.060 340.883c-8.68 0-15.714 7.034-15.714 15.714v48.143c0 8.68 7.034 15.714 15.714 15.714s15.714-7.034 15.714-15.714v-48.143c0-8.68-7.034-15.714-15.714-15.714zM735.871 354.467c-2.537 0-5.117 0.619-7.509 1.917l-55.745 30.41c-7.619 4.158-10.428 13.695-6.27 21.314s13.686 10.428 21.314 6.27l55.745-30.41c7.619-4.158 10.428-13.695 6.27-21.314-2.851-5.226-8.238-8.188-13.805-8.188zM735.888 306.324c-8.68 0-15.714 7.034-15.714 15.714v48.143c0 8.68 7.034 15.714 15.714 15.714s15.714-7.034 15.714-15.714v-48.143c-0.008-8.68-7.034-15.714-15.714-15.714zM665.93 316.76c-2.537 0-5.117 0.619-7.509 1.917l-55.745 30.41c-7.619 4.158-10.428 13.695-6.27 21.314s13.686 10.42 21.314 6.27l55.745-30.41c7.619-4.158 10.428-13.695 6.27-21.314-2.851-5.226-8.238-8.188-13.805-8.188zM665.947 268.617c-8.68 0-15.714 7.034-15.714 15.714v48.143c0 8.68 7.034 15.714 15.714 15.714s15.714-7.034 15.714-15.714v-48.143c-0.008-8.68-7.042-15.714-15.714-15.714zM594.471 282.193c-2.537 0-5.117 0.619-7.509 1.917l-55.745 30.41c-7.619 4.158-10.428 13.695-6.27 21.314s13.686 10.436 21.314 6.27l55.745-30.41c7.619-4.158 10.428-13.695 6.27-21.314-2.851-5.226-8.238-8.188-13.805-8.188zM594.487 234.050c-8.68 0-15.714 7.034-15.714 15.714v48.143c0 8.68 7.034 15.714 15.714 15.714s15.714-7.034 15.714-15.714v-48.143c0-8.68-7.034-15.714-15.714-15.714zM519.057 244.486c-2.537 0-5.117 0.619-7.509 1.917l-55.745 30.41c-7.619 4.158-10.428 13.695-6.27 21.314s13.686 10.436 21.314 6.27l55.745-30.41c7.619-4.158 10.428-13.695 6.27-21.314-2.851-5.226-8.238-8.188-13.805-8.188zM519.073 196.342c-8.68 0-15.714 7.034-15.714 15.714v48.143c0 8.68 7.034 15.714 15.714 15.714s15.714-7.034 15.714-15.714v-48.143c0-8.68-7.034-15.714-15.714-15.714zM780.688 403.73c-8.68 0-15.714 7.034-15.714 15.714v78.553c0 8.68 7.034 15.714 15.714 15.714s15.714-7.034 15.714-15.714v-78.553c0-8.68-7.034-15.714-15.714-15.714zM39.127 403.73c-8.68 0-15.714 7.034-15.714 15.714v78.553c0 8.68 7.034 15.714 15.714 15.714s15.705-7.034 15.705-15.714v-78.553c0-8.68-7.034-15.714-15.705-15.714zM608.886 511.624l-198.979 99.493-198.979-99.493 30.393-15.197 168.586 84.288 168.578-84.288z" />
<glyph unicode="&#xe918;" glyph-name="egg3" horiz-adv-x="819" d="M177.448 694.56c-53.452 0-95.66-36.983-124.354-84.695-28.694-47.716-45.465-107.408-49.118-160.896-3.98-58.326 13.689-106.433 45.719-139.312 32.031-32.876 77.692-50.192 127.753-50.192 35.789 0 69.113 8.942 96.99 25.946 4.504 2.52 7.499 7.261 7.499 12.7 0 8.011-6.494 14.504-14.504 14.504-3.006 0-5.799-0.914-8.115-2.481l0.051 0.033c-22.975-14.013-50.966-21.697-81.92-21.697-43.426 0-80.978 14.741-106.961 41.412s-41.079 65.543-37.561 117.102c3.335 48.826 19.284 105.189 44.983 147.921 25.699 42.735 59.505 70.648 99.54 70.648 25.574 0 48.029-11.106 68.21-30.593s37.387-47.362 50.251-78.466c2.232-5.323 7.401-8.995 13.427-8.995 8.019 0 14.519 6.5 14.519 14.519 0 1.993-0.401 3.892-1.127 5.62l0.035-0.095c-13.999 33.842-32.826 64.983-56.936 88.263-24.11 23.283-54.216 38.753-88.379 38.753zM409.499 636.547c-53.452 0-95.662-36.987-124.354-84.695-7.172-11.93-13.613-24.644-19.262-37.79-0.743-1.687-1.175-3.654-1.175-5.722 0-8.018 6.499-14.517 14.517-14.517 5.95 0 11.063 3.579 13.306 8.702l0.036 0.093c5.179 12.049 10.968 23.59 17.393 34.274 25.697 42.732 59.505 70.648 99.54 70.648s73.844-27.913 99.54-70.648c25.696-42.732 41.648-99.094 44.983-147.921 3.518-51.562-11.581-90.431-37.561-117.102s-63.535-41.412-106.961-41.412c-43.426 0-80.98 14.741-106.961 41.412s-41.080 65.54-37.561 117.102c0.026 0.327 0.041 0.708 0.041 1.093 0 8.013-6.496 14.509-14.509 14.509-7.704 0-14.005-6.004-14.481-13.588l-0.002-0.042c-3.98-58.326 13.692-106.433 45.719-139.312 32.027-32.876 77.692-50.192 127.753-50.192s95.726 17.317 127.753 50.192c32.027 32.879 49.7 80.986 45.719 139.312-3.653 53.487-20.428 113.18-49.118 160.896-28.69 47.712-70.901 84.695-124.354 84.695zM380.379 556.78c-2.407-0.026-4.666-0.636-6.65-1.692l0.078 0.039c-31.584-15.872-51.328-49.093-51.328-85.206-0.001-0.061-0.001-0.133-0.001-0.205 0-8.011 6.494-14.504 14.504-14.504s14.504 6.494 14.504 14.504c0 0.073 0 0.144-0.001 0.216v-0.011c0 25.543 13.993 48.528 35.352 59.26 4.92 2.391 8.252 7.35 8.252 13.088 0 8.011-6.494 14.504-14.504 14.504-0.073 0-0.145 0-0.216-0.001h0.011zM148.328 607.541c-2.407-0.026-4.666-0.636-6.65-1.692l0.078 0.039c-31.584-15.864-51.328-49.084-51.328-85.197-0.001-0.061-0.001-0.133-0.001-0.205 0-8.011 6.494-14.504 14.504-14.504s14.504 6.494 14.504 14.504c0 0.073 0 0.144-0.001 0.216v-0.011c0 25.543 13.993 48.528 35.352 59.26 4.92 2.391 8.252 7.35 8.252 13.088 0 8.011-6.494 14.504-14.504 14.504-0.073 0-0.145 0-0.216-0.001h0.011zM641.55 694.56c-34.163 0-64.268-15.469-88.379-38.753-24.11-23.281-42.937-54.422-56.936-88.263-0.841-1.781-1.331-3.868-1.331-6.070 0-8.011 6.494-14.504 14.504-14.504 6.224 0 11.532 3.92 13.591 9.426l0.033 0.1c12.866 31.104 30.127 58.978 50.308 78.466s42.636 30.593 68.21 30.593c40.034 0 73.784-27.913 99.483-70.648 2.583-4.241 7.184-7.031 12.434-7.031 8.014 0 14.511 6.497 14.511 14.511 0 2.762-0.772 5.345-2.111 7.542l0.036-0.063c-28.694 47.712-70.9 84.695-124.354 84.695zM790.491 522.050c-7.686-0.406-13.763-6.736-13.763-14.486 0-1.274 0.164-2.51 0.472-3.686l-0.023 0.101c1.548-6.428 2.954-12.844 4.136-19.263 2.36-12.818 3.922-25.52 4.759-37.731 3.522-51.559-11.578-90.431-37.561-117.102s-63.535-41.412-106.961-41.412c-30.955 0-58.948 7.681-81.92 21.697-2.265 1.534-5.058 2.449-8.064 2.449-8.011 0-14.504-6.494-14.504-14.504 0-5.44 2.995-10.181 7.426-12.663l0.074-0.037c27.877-17.010 61.202-25.946 96.99-25.946 50.061 0 95.722 17.317 127.753 50.192 32.031 32.879 49.702 80.986 45.719 139.312-0.917 13.366-2.66 27.098-5.212 40.96-1.274 6.912-2.743 13.891-4.419 20.847-1.516 6.515-7.272 11.294-14.145 11.294-0.265 0-0.529-0.007-0.791-0.022l0.036 0.001zM670.273 607.541c-7.904-0.138-14.258-6.579-14.258-14.502 0-5.738 3.332-10.698 8.167-13.051l0.086-0.037c21.358-10.732 35.295-33.717 35.295-59.26-0.001-0.061-0.001-0.133-0.001-0.205 0-8.011 6.494-14.504 14.504-14.504s14.504 6.494 14.504 14.504c0 0.073 0 0.144-0.001 0.216v-0.011c0 36.113-19.744 69.334-51.328 85.206-1.951 1.042-4.269 1.655-6.729 1.655-0.084 0-0.168-0.001-0.252-0.002h0.012zM757.576 556.754c0-8.010 6.494-14.503 14.503-14.503v0c8.010 0 14.503 6.494 14.503 14.503v0c0 8.010-6.494 14.503-14.503 14.503v0c-8.010 0-14.503-6.494-14.503-14.503v0zM244.962 447.98c0-8.010 6.494-14.503 14.503-14.503v0c8.010 0 14.503 6.494 14.503 14.503v0c0 8.010-6.494 14.503-14.503 14.503v0c-8.010 0-14.503-6.494-14.503-14.503v0z" />
<glyph unicode="&#xe919;" glyph-name="lander" horiz-adv-x="470" d="M230.854 857.957c-16.599-0.006-31.789-6.035-43.504-16.020l0.094 0.078c-100.789-21.474-176.599-105.98-184.663-209.5l-0.050-0.801h0.067c-1.754-4.932-2.776-10.621-2.799-16.546v-0.010c0.023-22.134 14.006-40.998 33.618-48.26l0.356-0.116 153.428-233.031c-11.497 0-20.891-8.79-22.009-20.111h-0.715l-67.826-204.637 0.684-2.052-0.684-0.684 1.364-1.364 0.337-0.977h0.651l38.853-39.087h188.924l38.853 39.087h0.651l0.337 0.977 1.357 1.364-0.681 0.684 0.681 2.052-67.826 204.637h-0.715c-1.118 11.323-10.506 20.111-22.003 20.111h-0.34l150.141 227.976c24.327 4.402 42.541 25.406 42.566 50.669v0.003c-0.012 6.966-1.406 13.603-3.92 19.656l0.126-0.341h0.337c-8.47 107.571-88.95 194.065-192.865 211.666l-1.371 0.192c-11.281 8.944-25.714 14.357-41.412 14.384h-0.006zM198.882 789.352c0.269-0.004 0.498-0.025 0.708-0.067 3.372-0.614 0.303-5.518-3.988-15.638-4.293-10.119-9.809-25.438-14.408-47.82s-8.281-51.809-9.201-72.043c-0.518-11.45-0.168-19.874-0.202-26.156 1.858-3.928 2.949-8.531 2.965-13.389v-0.005c-0.001-17.776-14.412-32.187-32.188-32.188v0c-0.001 0-0.003 0-0.005 0-17.777 0-32.189 14.411-32.189 32.188v0c0.008 0.964 0.056 1.905 0.145 2.834l-0.010-0.129-0.135 0.067c1.84 15.943 3.679 31.884 7.971 51.504s11.038 42.923 21.154 62.543c10.117 19.619 23.608 35.562 35.257 45.371 10.921 9.196 20.225 13.001 24.124 12.937zM267.692 786.869c3.899 0.067 13.202-3.741 24.123-12.937 11.649-9.81 25.141-25.752 35.258-45.371s16.863-42.924 21.154-62.543c4.292-19.619 6.131-35.561 7.971-51.504l-0.135-0.067c0.078-0.8 0.127-1.741 0.135-2.691v-0.013c-0.001-17.776-14.412-32.187-32.188-32.188v0c-17.776 0.001-32.187 14.412-32.188 32.188v0c0.013 4.861 1.102 9.465 3.041 13.591l-0.083-0.197c-0.034 6.281 0.337 14.7-0.202 26.15-0.92 20.234-4.602 49.667-9.201 72.049s-10.115 37.7-14.408 47.82c-4.293 10.119-7.36 15.025-3.988 15.638 0.202 0.034 0.448 0.067 0.708 0.067zM96.063 589.406c8.792-16.519 25.894-27.578 45.581-27.591h0.002c19.472 0.021 36.412 10.845 45.149 26.801l0.134 0.268c6.394-12.274 17.232-21.492 30.329-25.617l0.365-0.099v-228.346l-152.033 230.858c13.083 3.804 23.766 12.293 30.341 23.483l0.131 0.242zM372.89 588.486c5.645-10.598 14.566-18.822 25.392-23.445l0.336-0.127-148.858-226.038c-1.068-1.623-1.566-3.379-1.65-5.124h-2.769v228.802c13.705 3.554 24.946 12.249 31.77 23.853l0.131 0.241c8.793-16.521 25.898-27.58 45.587-27.591h0.002c11.84 0.026 22.737 4.043 31.421 10.776l-0.117-0.088c7.826 4.583 14.169 10.92 18.628 18.5l0.131 0.241zM182.144 306.501h61.624c7.853 0 14.27-7.371 15.034-16.868h0.485l46.326-171.629-0.461-1.721 0.461-0.572-0.93-1.142-0.202-0.826h-0.444l-22.502-27.795h-102.749l-25.892 35.164h-0.357l-0.168 0.715-0.738 1.001 0.364 0.498-0.364 1.505 36.762 149.725h0.387c0.202 2.975 1.017 5.698 2.237 7.983h-4.557c-6.631 0-12.046-6.219-12.691-14.237h-0.411l-39.122-144.929 0.394-1.452-0.394-0.478 0.785-0.967 0.202-0.698h0.374l27.386-33.827h-17.757c-0.236 0-0.495-0.034-0.738-0.067l-22.56 27.866h-0.444l-0.202 0.826-0.93 1.142 0.461 0.572-0.461 1.721 46.331 171.629h0.481c0.765 9.494 7.178 16.864 15.028 16.868zM264.647 305.177h6.677c9.707 0 17.638-7.417 18.583-16.978h0.597l57.272-172.795-0.572-1.735 0.572-0.572-1.149-1.155-0.269-0.832h-0.545l-25.020-25.166h-24.522l24.2 26.759h0.515l0.236 0.856 1.085 1.189-0.539 0.597 0.539 1.786-53.829 178.522h-0.562c-0.303 3.546-1.495 6.8-3.281 9.523zM234.848 172.717c-0.001 0-0.003 0-0.005 0-22.018 0-39.868-17.85-39.868-39.868 0-0.002 0-0.003 0-0.005v0c0.001-22.018 17.85-39.867 39.868-39.867 0.002 0 0.003 0 0.005 0v0c22.017 0.001 39.866 17.85 39.866 39.867v0c0 0.001 0 0.003 0 0.004 0 22.018-17.849 39.867-39.866 39.868v0zM235.283 161.829c15.733-0.001 28.487-12.755 28.487-28.489 0-0.001 0-0.003 0-0.004v0c-0.001-15.733-12.754-28.486-28.487-28.487v0c-0.001 0-0.003 0-0.004 0-15.733 0-28.488 12.754-28.489 28.487v0c0 0.001 0 0.003 0 0.004 0 15.734 12.755 28.489 28.489 28.489 0.001 0 0.003 0 0.004 0v0zM148.915 53.897l15.76-15.854h135.652l15.76 15.854z" />
<glyph unicode="&#xe91a;" glyph-name="Tickets" horiz-adv-x="819" d="M167.52 447.069c0-10.281-8.334-18.614-18.614-18.614s-18.614 8.334-18.614 18.614c0 10.281 8.334 18.614 18.614 18.614s18.614-8.334 18.614-18.614zM167.52 260.931c0-10.281-8.334-18.614-18.614-18.614s-18.614 8.334-18.614 18.614c0 10.281 8.334 18.614 18.614 18.614s18.614-8.334 18.614-18.614zM186.133 354c0-20.56-16.667-37.227-37.227-37.227s-37.227 16.667-37.227 37.227c0 20.56 16.667 37.227 37.227 37.227s37.227-16.667 37.227-37.227zM688.707 558.752h-670.098c-11.168 0-18.614-7.445-18.614-18.614v-372.277c0-11.168 7.445-18.614 18.614-18.614h670.098c11.168 0 18.614 7.445 18.614 18.614v372.277c0 11.168-7.445 18.614-18.614 18.614zM670.093 186.475h-632.87v335.049h223.366v-279.208c0-11.168 7.445-18.614 18.614-18.614s18.614 7.445 18.614 18.614v279.208h372.277v-335.049zM353.657 335.386h260.594c11.168 0 18.614 7.445 18.614 18.614s-7.445 18.614-18.614 18.614h-260.594c-11.168 0-18.614-7.445-18.614-18.614s7.445-18.614 18.614-18.614zM353.657 409.842h260.594c11.168 0 18.614 7.445 18.614 18.614s-7.445 18.614-18.614 18.614h-260.594c-11.168 0-18.614-7.445-18.614-18.614s7.445-18.614 18.614-18.614zM521.182 298.159h-167.525c-11.168 0-18.614-7.445-18.614-18.614s7.445-18.614 18.614-18.614h167.525c11.168 0 18.614 7.445 18.614 18.614s-7.445 18.614-18.614 18.614zM819.003 368.892l-91.208 361.109c-1.862 11.168-11.168 16.752-22.337 14.892l-487.682-120.99c-9.307-1.862-16.752-13.030-13.030-22.337 1.862-9.307 13.030-16.752 22.337-13.030l70.732 18.614 3.723-13.030c1.862-9.307 9.307-14.892 18.614-14.892 1.862 0 3.723 0 3.723 0 9.307 1.862 16.752 13.030 13.030 22.337l-1.862 11.168 361.109 89.346 81.901-325.742-26.059-3.723c-9.307-1.862-16.752-13.030-13.030-22.337 1.862-9.307 9.307-14.892 18.614-14.892 1.862 0 3.723 0 3.723 0l44.674 11.168c5.584 1.862 9.307 3.723 11.168 9.307 1.862 3.723 1.862 9.307 1.862 13.030z" />
<glyph unicode="&#xe91b;" glyph-name="whistle" horiz-adv-x="819" d="M264.192 646.146c-109.259 0-198.148-88.889-198.148-198.148s88.889-198.148 198.148-198.148 198.148 88.889 198.148 198.148-88.889 198.148-198.148 198.148zM264.192 276.271c-94.688 0-171.728 77.040-171.728 171.728s77.040 171.728 171.728 171.728 171.728-77.040 171.728-171.728-77.040-171.728-171.728-171.728zM264.192 712.196c-145.678 0-264.197-118.519-264.197-264.197s118.519-264.197 264.197-264.197c104.82 0 199.719 62.113 241.779 158.241 21.136 48.321 68.664 79.537 121.095 79.537h191.939v290.617h-554.813zM607.648 685.776h79.259v-26.42h-79.259v26.42zM792.586 447.999h-26.42v26.42h-26.42v-26.42h-112.68c-62.918 0-119.945-37.423-145.295-95.362-37.86-86.511-123.248-142.416-217.58-142.416-131.108 0-237.777 106.669-237.777 237.777s106.669 237.777 237.777 237.777h317.036v-52.839h132.098v52.839h26.42v-184.938h26.42v184.938h26.42v-237.777zM250.982 461.209h26.42v-26.42h-26.42v26.42zM303.821 461.209h26.42v-26.42h-26.42v26.42zM198.143 461.209h26.42v-26.42h-26.42v26.42z" />
<glyph unicode="&#xe91c;" glyph-name="collect" horiz-adv-x="819" d="M178.348 653.792h54.878c7.586 0 13.719 6.146 13.719 13.719v54.878c0 7.574-6.133 13.719-13.719 13.719h-54.878c-7.586 0-13.719-6.146-13.719-13.719v-54.878c0-7.574 6.133-13.719 13.719-13.719zM192.067 708.67h27.439v-27.439h-27.439v27.439zM384.139 708.67h54.878c7.586 0 13.719 6.146 13.719 13.719v54.878c0 7.574-6.133 13.719-13.719 13.719h-54.878c-7.586 0-13.719-6.146-13.719-13.719v-54.878c0-7.574 6.133-13.719 13.719-13.719zM397.859 763.547h27.439v-27.439h-27.439v27.439zM96.031 612.633v-54.878c0-7.574 6.133-13.719 13.719-13.719h54.878c7.586 0 13.719 6.146 13.719 13.719v54.878c0 7.574-6.133 13.719-13.719 13.719h-54.878c-7.586 0-13.719-6.146-13.719-13.719zM123.47 598.914h27.439v-27.439h-27.439v27.439zM246.945 448v54.878c0 7.574-6.133 13.719-13.719 13.719h-54.878c-7.586 0-13.719-6.146-13.719-13.719v-54.878c0-7.574 6.133-13.719 13.719-13.719h54.878c7.586 0 13.719 6.146 13.719 13.719zM219.506 461.719h-27.439v27.439h27.439v-27.439zM370.42 461.719v54.878c0 7.574-6.133 13.719-13.719 13.719h-54.878c-7.586 0-13.719-6.146-13.719-13.719v-54.878c0-7.574 6.133-13.719 13.719-13.719h54.878c7.586 0 13.719 6.146 13.719 13.719zM342.981 475.439h-27.439v27.439h27.439v-27.439zM384.139 406.842h-54.878c-7.586 0-13.719-6.146-13.719-13.719v-54.878c0-7.574 6.133-13.719 13.719-13.719h54.878c7.586 0 13.719 6.146 13.719 13.719v54.878c0 7.574-6.133 13.719-13.719 13.719zM370.42 351.964h-27.439v27.439h27.439v-27.439zM713.406 36.416h54.878c7.586 0 13.719 6.146 13.719 13.719v54.878c0 7.574-6.133 13.719-13.719 13.719h-54.878c-7.586 0-13.719-6.146-13.719-13.719v-54.878c0-7.574 6.133-13.719 13.719-13.719zM727.126 91.294h27.439v-27.439h-27.439v27.439zM493.895 36.416h54.878c7.586 0 13.719 6.146 13.719 13.719v54.878c0 7.574-6.133 13.719-13.719 13.719h-54.878c-7.586 0-13.719-6.146-13.719-13.719v-54.878c0-7.574 6.133-13.719 13.719-13.719zM507.614 91.294h27.439v-27.439h-27.439v27.439zM603.651 118.733c-7.586 0-13.719-6.146-13.719-13.719v-54.878c0-7.574 6.133-13.719 13.719-13.719h54.878c7.586 0 13.719 6.146 13.719 13.719v54.878c0 7.574-6.133 13.719-13.719 13.719h-54.878zM644.809 63.855h-27.439v27.439h27.439v-27.439zM384.139 36.416h54.878c7.586 0 13.719 6.146 13.719 13.719v54.878c0 7.574-6.133 13.719-13.719 13.719h-54.878c-7.586 0-13.719-6.146-13.719-13.719v-54.878c0-7.574 6.133-13.719 13.719-13.719zM397.859 91.294h27.439v-27.439h-27.439v27.439zM397.859 159.892v54.878c0 7.574-6.133 13.719-13.719 13.719h-54.878c-7.586 0-13.719-6.146-13.719-13.719v-54.878c0-7.574 6.133-13.719 13.719-13.719h54.878c7.586 0 13.719 6.146 13.719 13.719zM370.42 173.611h-27.439v27.439h27.439v-27.439zM507.614 159.892v54.878c0 7.574-6.133 13.719-13.719 13.719h-54.878c-7.586 0-13.719-6.146-13.719-13.719v-54.878c0-7.574 6.133-13.719 13.719-13.719h54.878c7.586 0 13.719 6.146 13.719 13.719zM480.176 173.611h-27.439v27.439h27.439v-27.439zM712.103 248.025c-2.25 4.816-7.093 7.903-12.416 7.903h-27.439v54.878c0 7.574-6.133 13.719-13.719 13.719h-54.878c-7.586 0-13.719-6.146-13.719-13.719v-54.878h-27.439c-5.323 0-10.166-3.087-12.416-7.903-2.264-4.83-1.523-10.523 1.88-14.597l68.597-82.317c2.607-3.128 6.462-4.939 10.536-4.939s7.929 1.811 10.55 4.939l68.597 82.317c3.402 4.088 4.13 9.782 1.866 14.597zM631.089 181.322l-39.306 47.167h11.867c7.586 0 13.719 6.146 13.719 13.719v54.878h27.439v-54.878c0-7.574 6.133-13.719 13.719-13.719h11.867l-39.306-47.167zM288.103 159.892v54.878c0 7.574-6.133 13.719-13.719 13.719h-54.878c-7.586 0-13.719-6.146-13.719-13.719v-54.878c0-7.574 6.133-13.719 13.719-13.719h54.878c7.586 0 13.719 6.146 13.719 13.719zM260.664 173.611h-27.439v27.439h27.439v-27.439zM493.895 653.792h54.878c7.586 0 13.719 6.146 13.719 13.719v54.878c0 7.574-6.133 13.719-13.719 13.719h-54.878c-7.586 0-13.719-6.146-13.719-13.719v-54.878c0-7.574 6.133-13.719 13.719-13.719zM507.614 708.67h27.439v-27.439h-27.439v27.439zM246.945 626.353c-22.692 0-41.158-18.467-41.158-41.158s18.467-41.158 41.158-41.158 41.158 18.467 41.158 41.158-18.467 41.158-41.158 41.158zM246.945 571.475c-7.574 0-13.719 6.16-13.719 13.719s6.146 13.719 13.719 13.719 13.719-6.16 13.719-13.719-6.146-13.719-13.719-13.719zM411.578 598.914c22.692 0 41.158 18.467 41.158 41.158s-18.467 41.158-41.158 41.158-41.158-18.467-41.158-41.158 18.467-41.158 41.158-41.158zM411.578 653.792c7.574 0 13.719-6.16 13.719-13.719s-6.146-13.719-13.719-13.719-13.719 6.16-13.719 13.719 6.146 13.719 13.719 13.719zM96.031 653.792c22.692 0 41.158 18.467 41.158 41.158s-18.467 41.158-41.158 41.158-41.158-18.467-41.158-41.158 18.467-41.158 41.158-41.158zM96.031 708.67c7.574 0 13.719-6.16 13.719-13.719s-6.146-13.719-13.719-13.719-13.719 6.16-13.719 13.719 6.146 13.719 13.719 13.719zM96.031 516.597c-22.692 0-41.158-18.467-41.158-41.158s18.467-41.158 41.158-41.158 41.158 18.467 41.158 41.158-18.467 41.158-41.158 41.158zM96.031 461.719c-7.574 0-13.719 6.16-13.719 13.719s6.146 13.719 13.719 13.719 13.719-6.16 13.719-13.719-6.146-13.719-13.719-13.719zM96.031 406.842c-22.692 0-41.158-18.467-41.158-41.158s18.467-41.158 41.158-41.158 41.158 18.467 41.158 41.158-18.467 41.158-41.158 41.158zM96.031 351.964c-7.574 0-13.719 6.16-13.719 13.719s6.146 13.719 13.719 13.719 13.719-6.16 13.719-13.719-6.146-13.719-13.719-13.719zM233.225 406.842c-22.692 0-41.158-18.467-41.158-41.158s18.467-41.158 41.158-41.158 41.158 18.467 41.158 41.158-18.467 41.158-41.158 41.158zM233.225 351.964c-7.574 0-13.719 6.16-13.719 13.719s6.146 13.719 13.719 13.719 13.719-6.16 13.719-13.719-6.146-13.719-13.719-13.719zM41.153 77.575c0-22.692 18.467-41.158 41.158-41.158s41.158 18.467 41.158 41.158-18.467 41.158-41.158 41.158-41.158-18.467-41.158-41.158zM96.031 77.575c0-7.56-6.146-13.719-13.719-13.719s-13.719 6.16-13.719 13.719 6.146 13.719 13.719 13.719 13.719-6.16 13.719-13.719zM192.067 36.416c22.692 0 41.158 18.467 41.158 41.158s-18.467 41.158-41.158 41.158-41.158-18.467-41.158-41.158 18.467-41.158 41.158-41.158zM192.067 91.294c7.574 0 13.719-6.16 13.719-13.719s-6.146-13.719-13.719-13.719-13.719 6.16-13.719 13.719 6.146 13.719 13.719 13.719zM301.823 36.416c22.692 0 41.158 18.467 41.158 41.158s-18.467 41.158-41.158 41.158-41.158-18.467-41.158-41.158 18.467-41.158 41.158-41.158zM301.823 91.294c7.574 0 13.719-6.16 13.719-13.719s-6.146-13.719-13.719-13.719-13.719 6.16-13.719 13.719 6.146 13.719 13.719 13.719zM178.348 187.33c0 22.692-18.467 41.158-41.158 41.158s-41.158-18.467-41.158-41.158 18.467-41.158 41.158-41.158 41.158 18.467 41.158 41.158zM123.47 187.33c0 7.56 6.146 13.719 13.719 13.719s13.719-6.16 13.719-13.719-6.146-13.719-13.719-13.719-13.719 6.16-13.719 13.719zM13.714 269.647h439.022c7.586 0 13.719 6.146 13.719 13.719v247.759c21.183 1.77 41.296 7.326 59.46 16.367l22.857-22.857v-8.040c0-3.814 1.592-7.449 4.376-10.056l163.015-151.366c10.592-9.837 23.981-14.734 37.358-14.734 14.022 0 28.056 5.405 38.785 16.134l10.358 10.358c10.633 10.633 16.34 24.778 16.066 39.814-0.288 15.051-6.517 28.962-17.52 39.197l-160.778 149.308c-2.552 2.36-5.885 3.664-9.343 3.664h-8.040l-22.857 22.857c10.989 22.048 17.177 46.907 17.177 73.179 0 90.782-73.851 164.633-164.633 164.633-54.932 0-103.527-27.137-133.45-68.597h-305.573c-7.586 0-13.719-6.146-13.719-13.719v-493.9c0-7.574 6.133-13.719 13.719-13.719zM607.67 575.494c2.566-2.579 6.050-4.019 9.7-4.019h8.328l156.827-145.632c5.516-5.117 8.629-12.073 8.767-19.591 0.151-7.518-2.703-14.583-8.026-19.907l-10.358-10.358c-10.495-10.481-27.192-10.798-38.058-0.7l-158.638 147.292v7.738c0 3.636-1.441 7.134-4.019 9.7l-22.185 22.185c13.542 9.961 25.518 21.923 35.479 35.479l22.185-22.185zM452.737 832.145c75.649 0 137.195-61.546 137.195-137.195 0-24.475-6.448-47.469-17.726-67.39-0.302-0.426-0.603-0.864-0.864-1.317-11.991-20.662-29.236-37.906-49.898-49.898-0.452-0.26-0.878-0.549-1.303-0.851-19.921-11.291-42.928-17.739-67.403-17.739-75.649 0-137.195 61.546-137.195 137.195 0 5.982 0.521 11.908 1.289 17.781 0.192 1.468 0.426 2.922 0.672 4.376 0.851 5.186 1.949 10.317 3.389 15.352 0.178 0.645 0.315 1.317 0.508 1.961 1.729 5.721 3.882 11.305 6.352 16.778 0.452 0.988 0.946 1.961 1.413 2.936 2.36 4.925 5.008 9.727 7.971 14.378 24.38 38.181 67.033 63.63 115.6 63.63zM27.434 763.547h275.692c-0.26-0.563-0.426-1.138-0.672-1.701-1.618-3.622-3.032-7.326-4.39-11.072-0.59-1.618-1.249-3.21-1.784-4.856-1.275-3.91-2.318-7.903-3.307-11.922-0.384-1.55-0.851-3.059-1.194-4.624-0.906-4.253-1.55-8.615-2.127-12.979-0.178-1.358-0.48-2.703-0.617-4.061-0.603-5.721-0.932-11.51-0.932-17.383 0-5.529 0.288-11.003 0.837-16.395 0.178-1.824 0.549-3.595 0.782-5.391 0.466-3.539 0.92-7.079 1.606-10.536 0.426-2.127 1.029-4.184 1.537-6.283 0.741-3.059 1.441-6.119 2.346-9.11 0.672-2.195 1.495-4.322 2.25-6.476 0.974-2.785 1.921-5.584 3.046-8.3 0.906-2.181 1.935-4.281 2.922-6.42 1.194-2.579 2.387-5.173 3.704-7.683 1.111-2.113 2.346-4.144 3.539-6.202 1.413-2.415 2.812-4.816 4.349-7.148 1.317-2.003 2.73-3.951 4.13-5.899 1.606-2.236 3.224-4.445 4.939-6.599 1.509-1.893 3.087-3.718 4.679-5.542 1.784-2.058 3.595-4.075 5.488-6.037 1.687-1.756 3.43-3.444 5.186-5.117 1.961-1.866 3.951-3.69 6.009-5.46 1.852-1.592 3.732-3.128 5.639-4.651 2.127-1.674 4.294-3.293 6.517-4.87 1.989-1.413 3.993-2.799 6.050-4.116 2.292-1.481 4.61-2.881 6.969-4.239 2.127-1.221 4.253-2.429 6.434-3.567 2.429-1.263 4.911-2.429 7.409-3.581 2.236-1.015 4.459-2.044 6.736-2.964 2.579-1.043 5.213-1.961 7.848-2.881 2.318-0.795 4.624-1.618 6.983-2.318 2.73-0.809 5.516-1.468 8.3-2.14 2.373-0.563 4.719-1.18 7.12-1.632 2.895-0.563 5.831-0.932 8.78-1.344 2.401-0.329 4.774-0.727 7.203-0.946 0.521-0.055 1.029-0.165 1.564-0.206v-233.807h-411.57v466.461z" />
<glyph unicode="&#xe91d;" glyph-name="creative" horiz-adv-x="819" d="M360.441 959.977c-11.705-1.324-20.718-11.17-20.718-23.12 0-0.176 0.001-0.352 0.006-0.527v0.026-46.513c-0.001-0.098-0.003-0.213-0.003-0.329 0-12.846 10.413-23.259 23.259-23.259s23.259 10.413 23.259 23.259c0 0.115-0.001 0.231-0.003 0.346v-0.017 46.513c0.001 0.108 0.003 0.236 0.003 0.363 0 12.846-10.413 23.259-23.259 23.259-0.128 0-0.256-0.001-0.383-0.003h0.020c-0.325 0.016-0.707 0.026-1.090 0.026s-0.765-0.010-1.144-0.027l0.054 0.001zM220.903 925.092c-11.868-1.157-21.068-11.082-21.068-23.156 0-5.084 1.631-9.787 4.399-13.614l-0.047 0.068 23.256-34.885c4.247-6.193 11.286-10.204 19.262-10.204 12.859 0 23.282 10.423 23.282 23.282 0 4.886-1.505 9.42-4.077 13.164l0.051-0.079-23.256 34.885c-4.216 6.385-11.359 10.538-19.472 10.538-0.053 0-0.105 0-0.159 0h0.009c-0.325 0.016-0.707 0.026-1.090 0.026s-0.765-0.010-1.144-0.027l0.054 0.001zM499.98 925.092c-7.049-0.901-13.028-4.843-16.66-10.447l-0.055-0.091-23.256-34.885c-2.521-3.665-4.026-8.2-4.026-13.086 0-12.859 10.423-23.282 23.282-23.282 7.976 0 15.015 4.010 19.211 10.125l0.051 0.079 23.256 34.885c2.68 3.74 4.284 8.409 4.284 13.452 0 12.846-10.413 23.259-23.259 23.259-0.229 0-0.456-0.003-0.681-0.010l0.033 0.001c-0.325 0.016-0.707 0.026-1.090 0.026s-0.765-0.010-1.144-0.027l0.054 0.001zM127.877 832.067c-12.030-0.982-21.421-10.988-21.421-23.185 0-8.257 4.302-15.509 10.789-19.637l0.094-0.057 34.885-23.256c3.665-2.521 8.2-4.026 13.086-4.026 12.859 0 23.282 10.423 23.282 23.282 0 7.976-4.010 15.015-10.125 19.211l-0.079 0.051-34.885 23.256c-3.732 2.704-8.396 4.335-13.439 4.361h-0.006c-0.325 0.016-0.707 0.026-1.090 0.026s-0.765-0.010-1.144-0.027l0.054 0.001zM592.642 831.703c-3.857-0.545-7.305-1.962-10.247-4.045l-34.812-23.208c-7.177-4.053-11.943-11.63-11.943-20.321 0-12.846 10.413-23.259 23.259-23.259 5.498 0 10.551 1.908 14.531 5.097l-0.045-0.035 34.885 23.256c6.349 4.221 10.476 11.344 10.476 19.431 0 12.846-10.413 23.259-23.259 23.259-1.002 0-1.989-0.064-2.958-0.186l0.115 0.011zM362.985 820.075c-83.211 0-151.167-67.955-151.167-151.167 0-40.873 17.041-77.406 43.606-104.654h-183.144c-0.325 0.016-0.707 0.026-1.090 0.026s-0.765-0.010-1.144-0.027l0.054 0.001c-11.872-1.153-21.076-11.079-21.076-23.156 0-0.035 0-0.071 0-0.105v0.006-169.336c0-61.698 17.102-119.572 46.513-168.972h-0.363c33.593-62.781 70.133-109.422 70.133-150.076v-93.026c0.001-12.843 10.413-23.255 23.256-23.256h220.936c0.098-0.001 0.213-0.003 0.329-0.003 12.846 0 23.259 10.413 23.259 23.259s-10.413 23.259-23.259 23.259c-0.115 0-0.231-0.001-0.346-0.003h-197.662v69.769c0 64.619-44.785 114.687-75.583 172.243-0.24 0.25-0.477 0.487-0.718 0.718l-0.009 0.009c-25.479 42.557-39.972 92.596-39.972 146.079v146.079h511.641v-93.026c0.016-5.692 2.074-10.9 5.479-14.933l-0.028 0.034 109.378-130.454v-0.363c0.784-1.361 1.454-3.266 1.454-5.814 0-6.683-4.583-11.265-11.628-11.265h-81.397c-12.843-0.001-23.255-10.413-23.256-23.256v0-116.282c0.009-5.16-4.342-15.219-11.992-22.893s-17.54-11.992-22.893-11.992h-69.769c-12.843-0.001-23.255-10.413-23.256-23.256v0-104.654c-0.001-0.098-0.003-0.213-0.003-0.329 0-12.846 10.413-23.259 23.259-23.259s23.259 10.413 23.259 23.259c0 0.115-0.001 0.231-0.003 0.346v-0.017 81.397h46.513c22.449 0 41.479 10.911 55.961 25.437s25.474 33.634 25.437 55.961v93.026h58.141c31.55 0 58.141 25.976 58.141 57.778 0 10.801-2.903 21.567-8.721 30.887-0.6 0.967-1.199 1.797-1.848 2.583l0.031-0.040-105.744 126.457v107.924c-0.001 12.843-10.413 23.255-23.256 23.256h-159.888c26.565 27.248 43.606 63.781 43.606 104.654 0 83.211-67.955 151.167-151.167 151.167zM362.985 773.562c58.074 0 104.654-46.58 104.654-104.654 0-32.68-14.911-61.851-38.155-81.034-5.11-4.285-8.341-10.666-8.358-17.803v-5.817h-34.885v38.882c26.98 9.672 46.513 35.653 46.513 65.772 0 38.257-31.512 69.769-69.769 69.769s-69.769-31.512-69.769-69.769c0-30.168 19.468-56.137 46.513-65.772v-38.882h-34.885v5.814c-0.017 7.14-3.248 13.52-8.322 17.776l-0.035 0.030c-23.244 19.183-38.155 48.354-38.155 81.034 0 58.074 46.58 104.654 104.654 104.654zM93.356 692.165c-12.382-0.596-22.196-10.781-22.196-23.256 0-12.859 10.423-23.282 23.282-23.282 0.385 0 0.768 0.010 1.148 0.028l-0.054-0.001h46.513c0.098-0.001 0.213-0.003 0.329-0.003 12.846 0 23.259 10.413 23.259 23.259s-10.413 23.259-23.259 23.259c-0.115 0-0.231-0.001-0.346-0.003h-46.496c-0.325 0.016-0.707 0.026-1.090 0.026s-0.765-0.010-1.144-0.027l0.054 0.001zM362.985 692.165c13.12 0 23.256-10.136 23.256-23.256s-10.136-23.256-23.256-23.256c-13.12 0-23.256 10.136-23.256 23.256s10.136 23.256 23.256 23.256zM581.741 692.165c-12.382-0.596-22.196-10.781-22.196-23.256 0-12.859 10.423-23.282 23.282-23.282 0.385 0 0.768 0.010 1.148 0.028l-0.054-0.001h46.513c0.098-0.001 0.213-0.003 0.329-0.003 12.846 0 23.259 10.413 23.259 23.259s-10.413 23.259-23.259 23.259c-0.115 0-0.231-0.001-0.346-0.003h-46.496c-0.325 0.016-0.707 0.026-1.090 0.026s-0.765-0.010-1.144-0.027l0.054 0.001z" />
<glyph unicode="&#xe91e;" glyph-name="bscanner" horiz-adv-x="819" d="M526.501 784.398v-214.503h-29.25v214.503h29.25zM550.877 813.649h-78.001c-2.691 0-4.875-2.184-4.875-4.875v-263.253c0-2.691 2.184-4.875 4.875-4.875h78.001c2.691 0 4.875 2.184 4.875 4.875v263.253c0 2.691-2.184 4.875-4.875 4.875v0zM721.504 784.398v-214.503h-29.25v214.503h29.25zM745.879 813.649h-78.001c-2.691 0-4.875-2.184-4.875-4.875v-263.253c0-2.691 2.184-4.875 4.875-4.875h78.001c2.691 0 4.875 2.184 4.875 4.875v263.253c0 2.691-2.184 4.875-4.875 4.875v0zM621.565 560.145h-19.5c-2.691 0-4.875 2.184-4.875 4.875v224.253c0 2.691 2.184 4.875 4.875 4.875h19.5c2.691 0 4.875-2.184 4.875-4.875v-224.253c0-2.691-2.184-4.875-4.875-4.875zM811.693 794.148c2.691 0 4.875-2.184 4.875-4.875v-224.253c0-2.691-2.184-4.875-4.875-4.875h-19.5c-2.691 0-4.875 2.184-4.875 4.875v224.253c0 2.691 2.184 4.875 4.875 4.875h19.5zM585.002 404.241v-87.888h-87.888v87.888h87.888zM609.378 433.491h-136.639c-2.691 0-4.875-2.184-4.875-4.875v-136.639c0-2.691 2.184-4.875 4.875-4.875h136.639c2.691 0 4.875 2.184 4.875 4.875v136.639c0 2.691-2.184 4.875-4.875 4.875v0zM789.755 404.241v-87.888h-87.888v87.888h87.888zM814.13 433.491h-136.639c-2.691 0-4.875-2.184-4.875-4.875v-136.639c0-2.691 2.184-4.875 4.875-4.875h136.639c2.691 0 4.875 2.184 4.875 4.875v136.639c0 2.691-2.184 4.875-4.875 4.875v0zM585.002 199.489v-87.888h-87.888v87.888h87.888zM609.378 228.739h-136.639c-2.691 0-4.875-2.184-4.875-4.875v-136.639c0-2.691 2.184-4.875 4.875-4.875h136.639c2.691 0 4.875 2.184 4.875 4.875v136.639c0 2.691-2.184 4.875-4.875 4.875v0zM289.077 424.834v0zM276.245 376.97v-70.356h-18.847l18.847 70.356zM285.995 433.491h-11.047c-2.203 0-4.134-1.482-4.71-3.617l-36.612-136.639c-0.828-3.1 1.502-6.133 4.71-6.133h37.908c10.774 0 19.5 8.727 19.5 19.5v117.138c0 5.382-4.359 9.75-9.75 9.75v0zM399.75 813.649h-312.004c-48.467 0-87.751-39.284-87.751-87.751v-97.501c0-48.467 39.284-87.751 87.751-87.751h0.126l-84.29-314.558c-1.658-6.191 3.003-12.276 9.418-12.276h161.57c4.417 0 8.278 2.964 9.418 7.225l85.635 319.609h130.125c5.382 0 9.75 4.368 9.75 9.75v253.503c0 5.382-4.368 9.75-9.75 9.75zM159.614 243.062h-121.195l79.736 297.583h121.195l-79.736-297.583zM380.25 569.896h-292.504c-32.253 0-58.501 26.247-58.501 58.501v97.501c0 32.253 26.247 58.501 58.501 58.501h292.504v-214.503zM731.186 214.114v-43.943h-43.943v43.943h43.943zM740.936 228.739h-63.444c-2.691 0-4.875-2.184-4.875-4.875v-63.444c0-2.691 2.184-4.875 4.875-4.875h63.444c2.691 0 4.875 2.184 4.875 4.875v63.444c0 2.691-2.184 4.875-4.875 4.875v0zM804.38 140.92v-43.943h-43.943v43.943h43.943zM814.13 155.545h-63.444c-2.691 0-4.875-2.184-4.875-4.875v-63.444c0-2.691 2.184-4.875 4.875-4.875h63.444c2.691 0 4.875 2.184 4.875 4.875v63.444c0 2.691-2.184 4.875-4.875 4.875v0z" />
</font></defs></svg>